-------------------------------------------------------------------------------
Test set: com.freightify.AppTest
-------------------------------------------------------------------------------
Tests run: 18, Failures: 0, Errors: 0, Skipped: 0, Time elapsed: 0.117 s - in com.freightify.AppTest
